{
  "__loctest_invalid": "At least one input string must be provided",
  "8ball": "8ball",
  "ban_in_role_confirm": "## Are you sure you want to ban {0} users in the role {1}? \n # This cannot be stopped!!!",
  "ban_in_role": "Banning {0} users in the role {1}...",
  "ban_in_role_done": "Banned {0} users in the role {1}.",
  "ban_in_role_fail": "Failed to ban {0} users in the role {1}.",
  "ban_in_role_failed_some": "Banned {0} users in the role {1}, but failed to ban {2} users. Most likely due to heirarchy issues.",
  "ban_in_role_cancelled": "Cancelled.",
  "abrole_add": "Added {0} to the auto ban role list.",
  "abrole_exists": "The role {0} is already in the auto ban role list.",
  "abrole_remove": "Removed {0} from the auto ban role list.",
  "abrole_notexists": "The role {0} is not in the auto ban role list.",
  "aabr_disabled": "**Auto assign bot role** on bot join is now **disabled**.",
  "aabr_none": "Bots will receive regular roles when they join.",
  "aabr_role_removed": "Bots will no longer receive {0} role when they join this server.",
  "aabr_roles": "The following roles are applied to bots that join this server: {0}",
  "aar_disabled": "**Auto assign role** on user join is now **disabled**.",
  "aar_enabled": "**Auto assign role** on user join is now **enabled**.",
  "aar_none": "Users don't receive any roles when they join this server.",
  "aar_role_removed": "Users will no longer receive {0} role when they join this server.",
  "aar_roles": "The following roles are applied to users that join this server: {0}",
  "abilities": "Abilities",
  "account_not_found": "That account does not exist or is set to private.",
  "acm_disable": "Disabled usage of ALL MODULES on channel {0}.",
  "acm_enable": "Enabled usage of ALL MODULES on channel {0}.",
  "acro_ended_no_sub": "Game ended with no submissions.",
  "acro_no_votes_cast": "No votes cast. Game ended with no winner.",
  "acro_nym_was": "Acronym was {0}.",
  "acro_running": "Acrophobia game is already running in this channel.",
  "acro_started_footer": "You have {0} seconds to make a submission.",
  "acro_started": "Game started. Create a sentence with the following acronym: {0}.",
  "acro_submit": "{0} submitted their sentence. ({1} total)",
  "acro_vote_cast": "{0} cast their vote!",
  "acro_vote": "Vote by typing a number of the submission",
  "acro_winner_only": "{0} is the winner for being the only user who made a submission!",
  "acro_winner": "Winner is {0} with {1} points.",
  "acrophobia": "Acrophobia",
  "activity_line": "`{0}.` {1} [{2:F2}/s] - {3} total",
  "active_afks": "Active Afks",
  "disabled_afk_channels": "Disabled Afk Channels",
  "activity_page": "Activity page #{0}",
  "activity_users_total": "{0} users total.",
  "added_roles": "Added Roles",
  "auto_publish_not_enabled": "Auto publish is not enabled for any channels.",
  "blacklisted_users": "Blacklisted Users",
  "blacklisted_words": "Blacklisted Words",
  "auto_publish_already_set": "{0} is already set as an auto publish channel.",
  "word_publish_max_length": "Max length reached. Please keep blacklisted word under 40 characters.",
  "auto_publish_set": "Messages in {0} will now be auto published.",
  "auto_publish_not_set": "{0} is not an auto publish channel.",
  "missing_manage_messages": "I am missing permissions to Manage Messages in {0}!",
  "none": "none",
  "auto_publish_removed": "Messages in {0} will no longer be auto published.",
  "channel_not_news_channel": "That channel is not an announcement channel. Please make sure its set as an announcement channel and try again.",
  "channel_not_auto_publish": "That channel is not added as an auto publish channel. Please add it and try again.",
  "user_already_blacklisted_autopub": "{0} is already blacklisted in that channel.",
  "word_already_blacklisted_autopub": "{0} is already blacklisted in that channel.",
  "user_publish_blacklisted": "Messages from {0} in {1} will no longer be auto published.",
  "word_publish_blacklisted": "Messages that contain {0} in {1} will no longer be auto published.",
  "user_not_blacklisted_autopub": "{0} is not blacklisted in that channel.",
  "user_punish_unblacklisted": "{0} is no longer blacklisted from auto publish in {1}.",
  "word_not_blacklisted_autopub": "{0} is not blacklisted in that channel.",
  "word_punish_unblacklisted": "{0} is no longer blacklisted from auto publish in {1}.",
  "adsarm_disable": "Bot will no longer delete `{0}iam` and `{0}iamn` responses.",
  "adsarm_enable": "Automatic deletion of `{0}iam` and `{0}iamn` responses has been enabled.",
  "advanced_options": "Advanced Options",
  "afk_already_in_list": "No channels were added because the channels you specified are already in the list.",
  "afk_channels_updated": "Added {0} to the list of channels afk ignores",
  "afk_deletion_disabled": "Deletion of the Afk Message has been disabled!",
  "afk_deletion_set": "Afk messages will now delete after {0} seconds.",
  "afk_disable_message": "Afk will be disabled when a user sends a message.",
  "afk_disable_self": "Afk will only be disableable by the user themselves (unless an admin uses the afkrm command)",
  "afk_disable_typing": "Afk messages will be disabled when a user starts typing.",
  "afk_disabled_channels_none": "You don't have any disabled channels!",
  "afk_disabled_channels_noneset": "The channels you have specifed are not set to ignore Afk!",
  "afk_disabled_channels_removed": "Successfully removed the channels {0} from the list of ignored Afk channels.",
  "afk_disabled_in": "Afk has been disabled in the channels {0}",
  "afk_disabled_none": "You don't have any disabled Afk channels.",
  "afk_disabled": "Afk disabled.",
  "logging_category_disabled": "Logging for the {0} category has been disabled.",
  "logging_category_enabled": "Logging for the {0} category has been set to {1}.",
  "afk_enabled_no_message": "Afk has been enabled.",
  "afk_enabled": "Afk enabled and set to:\n\n{0}",
  "afk_ignoring_no_longer_disabled": "Mewdeko will no longer ignore afk in any channel.",
  "afk_max_length_set": "The Maximum Length is now {0}.",
  "afk_max_length_too_large": "The Maximum Length is 4096 per Discord limits. Please put a number lower than that.",
  "afk_message_default": "Afk messages will now have the default look.",
  "afk_message_too_long": "That message is too long! The maximum message length here is `{0}`.",
  "afk_message_updated": "Sucessfully updated afk message!",
  "afk_messages_delete": "Afk messages will delete after `{0}`",
  "afk_messages_nodelete": "Afk messages will no longer be deleted.",
  "afk_msg_disabled": "Afk message disabled!",
  "afk_msg_enabled": "Afk message enabled!",
  "afk_not_l_bozo": "That user isn't afk!",
  "rero_roles_count": "Roles: {0}",
  "wasdeleted": "Was deleted",
  "yes": "Yes",
  "no": "No",
  "messagelink": "Message Link",
  "greethookset": "Set the greet webhook and enabled webhook greets",
  "greethookset2": "Set the greet webhook and enabled webhook greets. Please use {0}greet to enable greet messages.",
  "leavehookset": "Set the leave webhook and enabled webhook leaves",
  "leavehookset2": "Set the leave webhook and enabled webhook leaves. Please use {0}bye to enable leave messages.",
  "HYATT": "Link",
  "rolecolor": "Role Color",
  "dmgreetcheck": "Bots that are not verified can get quarantined by Discord if they dm too many users at once, Do you still want to toggle this feature?",
  "messagewasdeleted": "Message was deleted",
  "maxdeletetime": "The maximum delete time is {0}!",
  "greethookdisabled": "Greet hook disabled",
  "leavehookdisabled": "Leave hook disabled",
  "users_can_select_morethan_one": "Users can select more than one role",
  "afk_noted": "afk message for {0} disabled",
  "afk_rm_fail_hierarchy": "No afk messages removed because all users were below the bot in the role hierarchy.",
  "afk_rm_fail_noafk": "Afk remove failed because the user(s) didn't have an afk set.",
  "afk_rm_multi_success": "Afk removed for {0} users.",
  "afk_rm_success": "Afk removed for {0}",
  "afk_still_starting": "Hold your horses I just started back up! Give me a few seconds then this command will be ready!\\nIn the meantime check out https://github.com/Sylveon76/Mewdeko/releases for bot updates!",
  "afk_success_hierarchy": "Afk for {0} removed but {1} users weren't touched due to hierarchy.",
  "afk_time_invalid": "The time format provided was incorrect! Please use this format: `20m30s`",
  "afk_time_set": "Timed AFK has been set, and will unset in {0}.\nMessage set to:\n{1}",
  "afk_timeout_invalid": "The maximum Afk timeout is 2 Hours. Minimum is 1 Second.",
  "afk_timeout_set": "Your AFK Timeout has been set to {0}",
  "afk_type_set": "Afk removal type set to `{0}`.",
  "afk_user_none": "This user isn't afk!",
  "enter2fa": "Enter 2FA code",
  "incorrect2fa": "Incorrect 2FA code",
  "highestpossiblerole": "You now have the highest role that I can possibly give you along with admin.",
  "startagain": "Please start setup again.",
  "tryagain": "Try again",
  "recoversetupcomplete": "Recovery setup complete!",
  "pleaseenter2fa": "Please enter your 2FA code",
  "afk_user": "**{0}** afk is {1}",
  "nothingsetup": "Nothing setup",
  "keepsecret": "KEEP THIS SECRET, DO NOT SHARE IT WITH ANYONE!",
  "areyouabsolutelysure": "Are you absolutely sure? ***This cannot be undone!***",
  "recovrydel": "Recovery deleted",
  "recovernoadmin": "Server recovery cannot function without admin, exiting...",
  "recoverowneronly": "Server recovery can only be setup by the server owner.",
  "afk_users_none": "There are no currently AFK users!",
  "alias_added": "Typing {0} will now be an alias of {1}.",
  "alias_list": "List of aliases",
  "alias_remove_fail": "Trigger {0} didn't have an alias.",
  "alias_removed": "Trigger {0} no longer has an alias.",
  "aliases_cleared": "All {0} aliases on this server have been removed.",
  "aliases_none": "No alias found",
  "all_stats_cleared": "all_stats_cleared",
  "allowed": "Allowed",
  "animal_race_already_in": "You've already joined this race!",
  "animal_race_already_started": "Animal Race is already running.",
  "animal_race_failed": "Failed to start since there was not enough participants.",
  "animal_race_full": "Race is full! Starting immediately.",
  "animal_race_join_bet": "{0} joined as a {1} and bet {2}!",
  "animal_race_join_instr": "Type {0}jr to join the race.",
  "animal_race_join": "{0} joined as a {1}",
  "animal_race_no_race": "This Animal Race is full!",
  "animal_race_starting_with_x": "Starting with {0} participants.",
  "animal_race_starting": "Starting in {0} seconds or when the room is full.",
  "animal_race_won_money": "{0} as {1} Won the race and {2}!",
  "animal_race_won": "{0} as {1} Won the race!",
  "animal_race": "Animal race",
  "anime_no_fav": "No favorite anime yet",
  "anti_alt_status": "Any user joining the server with an account that is not older than {0} will have the following action applied to them: {1}\nPunished so far: {2}",
  "anti_raid_not_running": "Anti-Raid feature is not enabled.",
  "anti_spam_not_running": "Anti-Spam feature is not enabled.",
  "api_key_missing": "Api key missing.",
  "arm_disable": "Disabled usage of ALL MODULES for role {0}.",
  "arm_enable": "Enabled usage of ALL MODULES for role {0}.",
  "asm_disable": "Disabled usage of ALL MODULES on this server.",
  "asm_enable": "Enabled usage of ALL MODULES on this server.",
  "atl_ad_started": "Started automatic translation of messages on this channel. User messages will be auto-deleted.",
  "atl_removed": "your auto-translate language has been removed.",
  "atl_set": "Your auto-translate language has been set to {0}>{1}",
  "atl_started": "Started automatic translation of messages on this channel.",
  "atl_stopped": "Stopped automatic translation of messages on this channel.",
  "attachments": "Attachments",
  "attempting_to_queue": "Attempting to queue {0} songs...",
  "aum_disable": "Disabled usage of ALL MODULES for user {0}.",
  "aum_enable": "Enabled usage of ALL MODULES for user {0}.",
  "author": "Author",
  "authors": "Authors",
  "autocmd_add": "The command {0} will execute every {1}s in this channel.",
  "autocmdlist_none": "No auto commands on this page.",
  "autodc_disable": "I will no longer disconnect from the voice channel when there are no more songs to play.",
  "autodc_enable": "I will disconnect from the voice channel when there are no more songs to play.",
  "autohentai_started": "Autohentai started. Reposting every {0}s with one of the following tags:\n{1}",
  "autohentai_stopped": "Autohentai stopped.",
  "autoplay_disabled": "Autoplay disabled.",
  "autoplay_enabled": "Autoplay enabled.",
  "autoplaying": "Auto-playing.",
  "avatar_changed": "Avatar Changed",
  "avatar_none": "User {0} has no avatar set.",
  "awarded": "has awarded {0} to {1}",
  "back_to_toc": "Back to ToC",
  "back": "Back",
  "bad_input_format": "Bad input format, or something went wrong.",
  "bandm": "You have been banned from {0} server.\nReason: {1}",
  "banmsg_default": "No ban message set. Default behavior will be used.",
  "banmsg_disabled": "Ban messages are disabled. You can enable them by setting a banmsg to something other than '-'.",
  "banned_pl": "banned",
  "banned_user": "User Banned",
  "banunder_banned": "Banned {0} users under that server join age, and was unable to ban {1} users.\nIf there were any failed bans please check the bots top role and try again.",
  "banunder_banning": "Banned {0} users..",
  "banunder_confirm": "Are you sure you want to ban {0} users that are under that server join age? Say `yes` to continue.",
  "banunder_no_users": "No users at or under that account age!",
  "banunder_preview": "Previewing {0} users who's accounts joined under {1} ago",
  "banunder_starting": "{0}|| Banned users under specified join time.",
  "better_luck": "Better luck next time ^_^",
  "bj_created": "has created a new BlackJack game in this channel.",
  "bj_joined": "has joined the BlackJack game",
  "blacklisted_tag_add": "Nsfw tag {0} is now blacklisted.",
  "blacklisted_tag_list": "List of blacklisted tags:",
  "blacklisted_tag_remove": "Nsfw tag {0} is no longer blacklisted.",
  "blacklisted_tag": "blacklisted_tag",
  "blacklisted": "Blacklisted {0} with ID {1}",
  "blocked_commands": "Blocked Commands",
  "blocked_modules": "Blocked Modules",
  "boost_off": "Boost announcements disabled.",
  "boost_on": "Boost announcements enabled on this channel.",
  "boostdel_off": "Automatic deletion of boost messages has been disabled.",
  "boostdel_on": "Boost messages will be deleted after {0} seconds.",
  "boostmsg_cur": "Current boost message: {0}",
  "boostmsg_enable": "Enable boost messages by typing {0}",
  "boostmsg_new": "New boost message set.",
  "bot_config_edit_fail": "Failed setting {0} to the value {1}",
  "bot_config_edit_success": "The value of {0} is set to {1}",
  "bot_config_reloaded": "Bot configuration has been reloaded.",
  "bot_currency": "Currency owned by the bot",
  "bot_list_awarded": "Awarded {0} to {1} users!",
  "bot_name": "Bot's name changed to {0}",
  "bot_nick": "Bot's nickname changed to {0}",
  "bot_owner_only": "Bot owner only",
  "bot_status": "Bot status changed to {0}",
  "bot_strings_reloaded": "Bot strings have been reloaded.",
  "botid": "Bot ID",
  "br_win": "Congratulations! You won {0} for rolling above {1}",
  "bye_off": "Bye announcements disabled.",
  "bye_on": "Bye announcements enabled on this channel.",
  "byedel_off": "Automatic deletion of bye messages has been disabled.",
  "byedel_on": "Bye messages will be deleted after {0} seconds.",
  "byemsg_cur": "Current bye message: {0}",
  "byemsg_enable": "Enable bye messages by typing {0}",
  "byemsg_new": "New bye message set.",
  "calcops": "List of functions in {0}calc command",
  "cancel": "Cancel",
  "cant_apply_punishment": "Can't apply punishment. Please make sure I have sufficient permissions, and that my role is above any other role in the server settings.",
  "cant_dm": "I can't dm you. Make sure your DMs are open. Go to **options (cog button) -> Privacy & Safety -> Allow direct messages from server members**",
  "cant_manage_role": "You can't manage this role, make sure you have a higher position than it, it's not @ everyone, and it's not managed by an application..",
  "cant_read_or_send": "You can't read from or send messages to that channel.",
  "card_not_found": "Couldn't find that card.",
  "cards_left": "{0} cards left in the deck.",
  "category": "Category",
  "catfact": "fact",
  "ch_name_change": "Channel Name Changed",
  "ch_old_name": "Old Name",
  "ch_topic_change": "Channel Topic Changed",
  "change_7d_24h": "Change (7d / 24h)",
  "changes_of_heart": "Changes of heart",
  "channel_delmsgoncmd": "Channel-Specific Settings",
  "channel_permission": "Requires {0} channel permission.",
  "channel_renamed": "Channel Renamed",
  "channel_topic": "Channel topic",
  "channel": "Channel",
  "channelid": "{0} of this channel is {1}",
  "chapters": "Chapters",
  "chat_triggers": "Chat Triggers",
  "city_not_found": "City not found.",
  "claimed_by": "Claimed by",
  "class": "Class",
  "cleaned_up": "Cleaned up.",
  "cleared": "All {0} Chat Triggers on this server have been removed.",
  "cleverbot_disabled": "Disabled cleverbot on this server.",
  "cleverbot_enabled": "Enabled cleverbot on this server.",
  "clpa_fail_already_title": "Already rewarded",
  "clpa_fail_already": "Maybe you've already received your reward for this month. You can receive rewards only once a month unless you increase your pledge.\nYou can check it by using `.curtrs` command.",
  "clpa_fail_conn_title": "Discord account not connected",
  "clpa_fail_conn": "Your discord account might not be connected to Patreon. If you are unsure what that means, or don't know how to connect it - you have to go to [Patreon account settings page](https://patreon.com/settings/account) and click 'Connect to discord' button.",
  "clpa_fail_sup_title": "Not supporting",
  "clpa_fail_sup": "In order to be eligible for the reward, you must support the project on patreon. You can use {0} command to get the link.",
  "clpa_fail_wait_title": "Wait some time",
  "clpa_fail_wait": "You have to wait 5-10 minutes after making your pledge (and coonnecting your discord account to your patreon) for your currency to show up.",
  "clpa_fail": "Patreon claim failed! Please try again later.",
  "clpa_next_update": "Next update in {0}",
  "clpa_obsolete": ":tada: **Patreon currency rewards are now automatic!** :tada:\nThis command is now obsolete.\nIf you did not receive your reward for this month's pledge, below are some of the reasons as to why that might be.",
  "clpa_success": "Patreon claim success! ",
  "clpa_too_early": "Rewards can be claimed on or after 5th of each month.",
  "club_accept_error": "User not found",
  "club_accepted": "Accepted user {0} to the club.",
  "club_admin_add": "{0} is now a club admin.",
  "club_admin_error": "Error. You are either not the owner of the club, or that user is not in your club.",
  "club_admin_remove": "{0} is no longer club admin.",
  "club_applied": "You've applied for membership in {0} club.",
  "club_apply_error": "Error applying. You are either already a member of the club, or you don't meet the minimum level requirement, or you've been banned from this one.",
  "club_apps_for": "Applicants for {0} club",
  "club_bans_for": "Bans for {0} club",
  "club_create_error": "Failed creating the club. Make sure you're above level 5 and not a member of a club already.",
  "club_create_too_long": "Club name is too long.",
  "club_created": "Club {0} successfully created!",
  "club_desc_update_failed": "Failed changing club description.",
  "club_desc_updated": "Updated club description to {0}",
  "club_disband_error": "Error. You are either not in a club, or you are not the owner of your club.",
  "club_disbanded": "Club {0} has been disbanded",
  "club_icon_error": "Not a valid image url or you're not the club owner.",
  "club_icon_set": "New club icon set.",
  "club_leaderboard": "Club leaderboard - page {0}",
  "club_left": "You've left the club.",
  "club_level_req_change_error": "Failed changing level requirement.",
  "club_level_req_changed": "Changed club's level requirement to {0}",
  "club_not_exists_owner": "You are not the owner or the admin of the club.",
  "club_not_exists": "That club doesn't exist.",
  "club_not_in_club": "You are not in a club, or you're trying to leave the club you're the owner of.",
  "club_transfer_failed": "Transfer failed. You must be the club owner. Target must be a member of your club.",
  "club_transfered": "Ownership of the club {0} has been transferred to {1}",
  "club_user_ban_fail": "Failed to ban. You're either not the club owner, or that user is not in your club or applied to it.",
  "club_user_banned": "Banned user {0} from {1} club.",
  "club_user_kick_fail": "Error kicking. You're either not the club owner, or that user is not in your club.",
  "club_user_kick": "User {0} kicked from {1} club.",
  "club_user_unban_fail": "Failed to unban. You're either not the club owner, or that user is not in your club or applied to it.",
  "club_user_unbanned": "Unbanned user {0} in {1} club.",
  "club": "Club",
  "cmd_and_alias": "Commands and aliases",
  "cmd_perm_spawner_category_perms_desc": "Category Permissions",
  "cmd_perm_spawner_category_perms": "Category Permissions",
  "cmd_perm_spawner_channel_perms_desc": "Channel Permissions",
  "cmd_perm_spawner_channel_perms": "Channel Permissions",
  "cmd_perm_spawner_dpo_page": "Permissions Page {0}",
  "cmd_perm_spawner_required_perms_desc": "Users ALWAYS need these permissions to run this command.",
  "cmd_perm_spawner_required_perms": "Required Permissions",
  "cmd_perm_spawner_role_perms_desc": "Role Permissions",
  "cmd_perm_spawner_role_perms": "Role Permissions",
  "cmd_perm_spawner_user_perms_desc": "User Permissions",
  "cmd_perm_spawner_user_perms": "User Permissions",
  "cmdcd_add": "Command {0} now has a {1} cooldown.",
  "cmdcd_cleared": "Command {0} has no cooldown now and all existing cooldowns have been cleared.",
  "cmdcd_none": "No command cooldowns set.",
  "cmdlist_donate": "You can support the project on patreon: <{0}> or paypal: <{1}>",
  "color_invalid": "All RGB color values must be >0 and <255",
  "color_set": "Color Set",
  "comic_not_found": "Comic not found.",
  "comic_number": "Comic #",
  "command_costs": "Command costs",
  "command_expected_latency_server_size": "This command may take a bit to complete depending on server size, please wait...",
  "command_help_description": "Do `{0}help commandname` to see more info about a command.",
  "command_not_found": "I can't find that command. Please verify that the command exists before trying again.",
  "command_stats_delete_confirm": "Are you sure you want to delete your command stats? This action cannot be undone.",
  "command_stats_delete_fail": "Command stats not deleted. No stats to delete.",
  "command_stats_delete_success": "Command stats deleted.",
  "command_stats_disabled": "Command stats collection disabled.",
  "command_stats_enabled": "Command stats collection enabled. (This does ***not*** collect message contents!***)",
  "command_text": "Command Text",
  "commandlist_regen": "Commandlist regenerated.",
  "commands_instr": "Type `{0}h CommandName` to see the help for that specified command. e.g. `{0}h {0}8ball`",
  "commands_ran": "Commands ran",
  "compet_loses": "Competitive losses",
  "compet_played": "Competitive played",
  "compet_playtime": "Competitive playtime",
  "compet_rank": "Competitive rank",
  "compet_wins": "Competitive Wins",
  "completed": "Completed",
  "condition": "Condition",
  "confessions_blacklisted_added": "Added {0} to the confession blacklist!!",
  "confessions_blacklisted_already": "This user is already blacklisted!",
  "confessions_blacklisted_not": "This user is not blacklisted!",
  "confessions_blacklisted_removed": "Removed {0} from the confession blacklist!!",
  "confessions_blacklisted": "You are blacklisted from suggestions in that server!",
  "confessions_channel_set": "Set {0} as the Confession Channel!",
  "confessions_disabled": "Confessions disabled",
  "confessions_invalid_id": "The ID you provided was invalid!",
  "confessions_invalid_perms": "I don't have proper perms there! Please make sure to enable EmbedLinks and SendMessages in that channel for me!",
  "confessions_logging_disabled": "Confessions logging disabled",
  "confessions_missing_invite": "Unable to get invite due to missing permissions or no available invites.",
  "confessions_none_any": "You aren't in any servers that have my confessions enabled!",
  "confessions_none": "This server does not have confessions enabled!",
  "confessions_report_received": "Confessions Abuse Report Received",
  "confessions_report_sent": "Report sent. If you want to join and add on to it use the link below.",
  "confessions_report_user": "report user",
  "confessions_report": "report",
  "confessions_server_id": "Server Id",
  "confessions_server_invite": "Server Invite",
  "confessions_spleen": "Set {0} as the Confession Log Channel. \n***Keep in mind if I find you misusing this function I will find out, blacklist this server. And use your spleen to take over the world",
  "config_not_found": "Configuration {0} not found",
  "connect4_created_bet": "Created a Connect4 game and bet {0}. Waiting for a player to join with the same bet.",
  "connect4_created": "Created a Connect4 game. Waiting for a player to join.",
  "connect4_draw": "Connect4 game ended in a draw.",
  "connect4_failed_to_start": "Connect4 game failed to start because nobody joined.",
  "connect4_player_to_move": "Player to move: {0}",
  "connect4_won": "{0} won the game of Connect4 against {1}.",
  "content": "Content",
  "convert_not_found": "Cannot convert {0} to {1}: units not found",
  "convert_type_error": "Cannot convert {0} to {1}: types of unit are not equal",
  "convert": "{0} {1} is equal to {2} {3}",
  "convertlist": "Units which can be used by the converter",
  "cost": "Cost",
  "cr": "Successfully created role {0}",
  "crad_disabled": "crad_disabled",
  "crad_enabled": "crad_enabled",
  "crca_disabled": "crca_disabled",
  "crca_enabled": "crca_enabled",
  "crdm_disabled": "crdm_disabled",
  "crdm_enabled": "Enabled sending response in dms.",
  "created_at": "Created at",
  "created_by": "Created by {0}",
  "createtextchan": "Text channel {0} created.",
  "createvoich": "Voice channel {0} created.",
  "crypto_not_found": "CryptoCurrency with that name was not found.",
  "ct_clear_done": "This will delete all chat triggers on this server.",
  "ct_clear": "Chat triggers clear",
  "ct_crossposting_channel": "To <#{0}>",
  "ct_crossposting_webhook": "To a webhook",
  "ct_crossposting": "Crossposting",
  "ct_custom_prefix": "Custom Prefix",
  "ct_interaction_bulk_update_confirm": "Are you sure you want to update all interaction chat triggers? This may take a while or have unexpected consequences and should only be run if you are having issues.",
  "ct_interaction_bulk_update": "Updated {0} chat triggers.",
  "ct_interaction_description": "Application Command Description",
  "ct_interaction_errors_desc": "Run /triggers interactions errors to see the errors that have been encountered.",
  "ct_interaction_errors_info_desc": "The following errors were encountered when updating your application command chat triggers. If you need help resolving any of them, please stop by the [official support server](https://discord.gg/Mewdeko).",
  "ct_interaction_errors_info_title": "{0} Errors Found",
  "ct_interaction_errors_none_desc": "If your application command chat triggers are not showing up in discord, try restarting your client (ctrl+r on desktop, force-stopping and re-opening the app from settings on mobile). If you still do not see the triggers you have encountered an error with our command validation. Please report it in the [official support server](https://discord.gg/Mewdeko).",
  "ct_interaction_errors_none": "No errors where found.",
  "ct_interaction_errors_title": "OH NO! I cannot update your application command chat triggers!",
  "ct_interaction_id": "Application Command ID",
  "ct_interaction_name_invalid": "Interaction names must be less than 32 characters and not be entirely blank space. Slash command names can only contain letters, numbers, and hyphens (-), in addition they must be all lowercase. Read [Discord's official documentation](https://discord.com/developers/docs/interactions/application-commands#application-command-object-application-command-naming) for more information. If you want to change the interaction name without effecting normal trigger, run `/triggers interactions name`.",
  "ct_interaction_type_body": "{0} [Learn More](https://mewdeko.tech/p/75726fe9-c8fb-4d0e-9588-b192301c2a91/)",
  "ct_interaction_type_title": "Interaction Type",
  "ct_interr_duplicate_body": "Do to restrictions put in place by discord, multiple interactions cannot have the same name.\n\n**Effecting:**\n {0}",
  "ct_interr_duplicate": "Duplicate Interaction Name",
  "ct_interr_invalid_name_body": "Do to restrictions put in place by discord, after trimming leading/trailing whitespace on an interactions name it must be less than 32 characters, and more than 1 character. If the interaction is a slash command, it must have less than 3 spaces, be all lowercase, and not contain any characters other than letters and -s. You can use the regex `^(?:[\\w-]{1,32} {0,1}){1,3}$` to test your slash command name.\n\n**Effecting:**\n {0}",
  "ct_interr_invalid_name": "Invalid Interaction Name effecting",
  "ct_interr_subcommand_match_parent_body": "Do to restrictions put in place by discord, a subcommand's parent must not be a command.\n\n**Effecting:**\n {0}",
  "ct_interr_subcommand_match_parent": "Subcommand Match Parent",
  "ct_interr_too_many_children_body": "Do to restrictions put in place by discord, interactions cannot have more than 25 children.\n\n**Effecting:**\n {0}",
  "ct_interr_too_many_children": "Too Many Children effecting",
  "ct_prefix_type": "Prefix Type",
  "ct_realname": "Real Name",
  "ct_role_add_disabled": "The role {0} will no longer be added when the trigger {1} is run.",
  "ct_role_add_enabled": "The role {0} will be added when the trigger {1} is run.",
  "ct_role_remove_disabled": "The role {0} will no longer be removed when the trigger {1} is run.",
  "ct_role_remove_enabled": "The role {0} will be removed when the trigger {1} is run.",
  "ct_role_toggle_disabled": "The role {0} will no longer be toggled on all effected users when the trigger {1} is run.",
  "ct_role_toggle_enabled": "The role {0} will be toggled on all effected users when the trigger {1} is run.",
  "ct_roll_add_remove": "Rolls cannot be added and removed at the same time.",
  "ct_toggled_roll_grant": "The role \"{0}\" had it's grant state in the chat trigger #{1} toggled.",
  "ct_toggled_roll_remove": "The role \"{0}\" had it's removeal state in the chat trigger #{1} toggled.",
  "ct_valid_fields": "Valid Trigger Types",
  "ct_webhook_invalid": "I could not find that webhook. Make sure it is usable, and you copied the full url.",
  "ctr_reset": "Chat Trigger with id {0} will no longer add reactions.",
  "ctr_set": "Chat Trigger with id {0} will add following reactions to the response message: {1}",
  "ctr_testing_emotes": "Almost done, I just need to make sure the emotes are all valid.",
  "cur_reward_added": "Users who reach level {0} will receive {1}.",
  "cur_reward_cleared": "Reaching level {0} will no longer reward any {1}.",
  "curgen_disabled": "Currency generation has been disabled on this channel.",
  "curgen_enabled": "Currency generation has been enabled on this channel.",
  "curgen_pl": "{0} random {1} appeared!",
  "curgen_sn": "A random {0} appeared!",
  "currency_one_percent": "% of currency owned by top 1%",
  "currency_owned": "Total currency owned by users",
  "currency_planted": "Currency currently planted",
  "current_music_quality": "Currently set music quality is: {0}",
  "current_poll_results": "Current poll results",
  "custom_emojis": "Custom emojis",
  "cx_disable": "Disabled usage of {0} {1} on channel {2}.",
  "cx_enable": "Enabled usage of {0} {1} on channel {2}.",
  "date": "Date",
  "deafen": "Deafen successful.",
  "deck_reshuffled": "Deck reshuffled.",
  "define_unknown": "Can't find the definition for that term.",
  "define": "define",
  "definition": "Definition",
  "defprefix_current": "Default bot prefix is {0}",
  "defprefix_new": "Changed Default bot prefix from {0} to {1}",
  "defvol_set": "Default volume set to {0}%",
  "deleted": "Chat Trigger deleted",
  "music_join_fail": "Failed to join the voice channel. Make sure you're in a voice channel and have the proper permissions.",
  "music_join_success": "Joined the channel <#{0}>",
  "music_disconnect": "Disconnected from the voice channel and cleared the queue.",
  "music_leave_fail_not_channel": "Failed to leave the voice channel as I'm not in one.",
  "music_queue_empty": "Queue is empty.",
  "music_select_tracks": "Select the tracks you want to play.",
  "music_select_tracks_embed": "Select the tracks you want to play from the select menu. You can select more than one.",
  "music_queue_invalid_index": "Invalid index specified. Please specify a number between 1 and {0}",
  "music_search_fail": "Failed to find that song. Please try again.",
  "music_no_tracks": "No tracks found.",
  "music_song_removed": "Song removed from the queue.",
  "music_song_removed_stop": "Song removed from the queue and the player has been stopped.",
  "music_no_current_track": "No song is currently playing.",
  "music_repeat_type": "Repeat type set to {0}",
  "music_channel_set": "Music channel set to <#{0}>",
  "music_song_moved": "{0} has been moved to queue position {1}",
  "music_volume_set": "Volume set to {0}%",
  "music_volume_invalid": "Invalid volume specified. Please specify a number between 1 and 100",
  "music_added": "Added to the queue.",
  "music_now_playing": "Now playing",
  "music_queue_cleared": "Queue cleared and player stopped.",
  "music_nothing_playing": "Nothing is currently playing.",
  "music_player_error": "An error occurred while trying to play the song.",
  "music_added_amount": "Added {0} songs to the queue.",
  "music_not_in_channel": "You need to be in a voice channel to use this command.",
  "music_auto_play_invalid": "Invalid auto-play value specified. The maximum value is 5.",
  "music_autoplay_set": "AutoPlay set to {0}",
  "music_auto_play_disabled": "Auto-play disabled.",
  "music_settings": "Music settings",
  "music_pause": "Player has been paused.",
  "music_resume": "Player has been resumed.",
  "music_lavalink_disconnected": "Lavalink is disconnected. Please turn on lavalink and try again.",
  "musicsettings_volume": "***Volume***: {0}%",
  "musicsettings_autoplay": "***AutoPlay***: {0} tracks.",
  "musicsettings_autoplay_disabled": "***AutoPlay***: Disabled",
  "musicsettings_channel": "***Music Channel***: <#{0}>",
  "musicsettings_repeat": "***Repeat***: {0}",
  "musicsettings_channel_not_set": "***Music Channel***: None",
  "lastfm_credentials_invalid_autoplay": "Invalid Last.FM Key. Please make sure you've set the correct API Key. AutoPlay will be disabled. See console for more details.",
  "music_voice_channel_mismatch": "You need to be in the same voice channel as the bot to use this command.",
  "music_bot_not_connect": "The bot is not in a voice channel (Run `{0}join` to make it join your channel even if its already in there).",
  "delmsg_channel_inherit": "I will auto-delete messages which successfully execute commands on this channel only if this feature is enabled on the server.",
  "delmsg_channel_off": "I will never auto-delete messages which successfully execute commands on this channel.",
  "delmsg_channel_on": "I will always auto-delete messages which successfully execute commands on this channel, regardless of the server setting.",
  "delmsg_off": "I will no longer auto-delete messages which successfully execute commands on this server.",
  "delmsg_on": "I will auto-delete messages which successfully execute commands on this server.",
  "deltextchan": "Text channel {0} deleted.",
  "delvoich": "Voice channel {0} deleted.",
  "denied": "Denied",
  "desc": "Description",
  "dice_invalid_number": "Invalid number specified. You can roll {0}-{1} dice at once.",
  "dice_rolled_num": "Dice rolled: {0}",
  "dice_rolled": "rolled {0}",
  "did_you_mean": "Did you mean {0}?",
  "dir_queue_complete": "Directory queue complete.",
  "distance": "Distance between {0} and {1} is {2}km",
  "divorces": "Divorces",
  "dm_from": "DM from",
  "donadd": "Successfully added a new donator.Total donated amount from this user: {0} 👑",
  "donate": "You can support the Mewdeko project on \nPatreon <{0}> or\nPaypal <{1}>\nDon't forget to leave your discord name or id in the message.\n\n**Thank you** ♥️",
  "donatetext": "Support Us!",
  "donators": "Thanks to the people listed below for making this project happen!",
  "dr": "Role {0} has been deleted.",
  "dragon_goes_nom": "Oh no, a dragon is a walking up to you! *nom* no one liked your head anyway.",
  "dragon_goes_suk": "A dragon slices the head off your body with a swipe of it's vengeful claw before slowly sucking the blood from your body with giant straw like you were a leaky joice box.",
  "dragon_set": "You are now an all powerful dragon goddess",
  "dragon_unset": " You awaken from your slumber, covered in a gross, clear, slime and smelling of dragons breath. Unsure how or why you arrived at your current location, after falling asleep at your computer moments ago. You pick up the sword laying beside you and resolve to find the nearest pub, maybe it's in that middle of that mid evil looking village? [roll 4d6 to begin filling out stats]",
  "dropped": "Dropped",
  "duration": "Duration",
  "economy_state": "State of the economy",
  "edit_fail": "Chat Trigger with that ID does not exist.",
  "edited_chat_trig": "Chat Trigger Edited",
  "embed_failed": "Embed failed. Most likely there are too many embeds or the text is too long.",
  "emote_reader_none_found": "No emotes found, make sure your emotes are seperated by a comma, like `❤️,😸`.",
  "episodes": "Episodes",
  "error_occured": "Error occurred.",
  "error": "Error",
  "event_duration_footer": "This event is active for up to {0} hours.",
  "event_title": "{0} event started!",
  "example": "Example",
  "excluded_channels": "Excluded Channels",
  "excluded_roles": "Excluded Roles",
  "excluded": "{0} has been excluded from the XP system on this server.",
  "exclusion_list": "Exclusion List",
  "execute": "Execute",
  "executes_in:": "Executes in:",
  "expr_import_invalid_data": "An error occurred parsing the file, Make sure it's a valid .yml file and you have permission to manage all roles contained in it.",
  "expr_import_no_input": "Invalid input. No valid file upload or input text found.",
  "expr_import_success": "Successfully parsed the chat trigger file.",
  "failed_finding_anime": "Failed finding that animu.",
  "failed_finding_manga": "Failed finding that mango.",
  "failed_finding_novel": "Can't find that novel. Make sure you've typed the exact full name, and that it exists on novelupdates.com",
  "failed_loading_question": "Failed loading a question.",
  "fairplay": "Fairplay",
  "features": "Features",
  "feed_added": "Feed added.",
  "feed_msg_updated": "Feed message updated.",
  "feed_no_feed": "You haven't subscribed to any feeds on this server.",
  "feed_not_valid": "Invalid link, or you're already following that feed on this server, or you've reached maximum number of feeds allowed.",
  "feed_out_of_range": "Index out of range.",
  "feed_removed": "Feed removed.",
  "filter_word_add": "Added word(s) {0} to the list of filtered words.",
  "filter_word_list": "List of filtered words",
  "filter_word_remove": "Removed word {0} from the list of filtered words.",
  "finished_song": "Finished song",
  "flip_guess": "You guessed it! You won {0}",
  "flip_invalid": "Invalid number specified. You can flip 1 to {0} coins.",
  "flip_results": "Flipped {0} coins. {1} heads, {2} tails.",
  "flipped": "flipped {0}.",
  "followers": "Followers",
  "fp_disabled": "Fair play disabled.",
  "fp_enabled": "Fair play enabled.",
  "from_position": "From position",
  "fw_cleared": "Removed all filtered words and filtered words channel settings.",
  "fwall_start": "I will forward DMs to all owners.",
  "fwall_stop": "I will forward DMs only to the first owner.",
  "fwdm_start": "I will forward DMs from now on.",
  "fwdm_stop": "I will stop forwarding DMs from now on.",
  "game_started": "Game started",
  "gcmd_add": "Command {0} has been disabled on all servers.",
  "gcmd_remove": "Command {0} has been enabled on all servers.",
  "genres": "Genres",
  "gifted": "has gifted {0} to {1}",
  "gifts": "Gifts",
  "global_leaderboard": "Global XP Leaderboard",
  "global_perms_reset": "Global permissions have been reset.",
  "gmod_add": "Module {0} has been disabled on all servers.",
  "gmod_remove": "Module {0} has been enabled on all servers.",
  "google_api_key_missing": "Google API Key required in order to use this feature.",
  "greet_off": "Greet announcements disabled.",
  "greet_on": "Greet announcements enabled on this channel.",
  "greetdel_off": "Automatic deletion of greet messages has been disabled.",
  "greetdel_on": "Greet messages will be deleted after {0} seconds.",
  "greetdm_off": "DM greet announcements disabled.",
  "greetdm_on": "DM greet announcements enabled.",
  "greetdmmsg_cur": "Current DM greet message: {0}",
  "greetdmmsg_enable": "Enable DM greet messages by typing {0}",
  "greetdmmsg_new": "New DM greet message set.",
  "greetmsg_cur": "Current greet message: {0}",
  "greetmsg_enable": "Enable greet messages by typing {0}",
  "greetmsg_new": "New greet message set.",
  "group_name_added": "Group #{0} now has a name: {1}",
  "group_name_removed": "Group #{0} no longer has a name.",
  "guide": "**List of commands**: <{0}>\n**Hosting guides and docs can be found here**: <{1}>",
  "gvc_disabled": "Game Voice Channel feature has been disabled on this server.",
  "gvc_enabled": "{0} is a Game Voice Channel now.",
  "hangman_game_started": "Hangman game started",
  "hangman_running": "Hangman game already running on this channel.",
  "hangman_start_errored": "Starting hangman errored.",
  "hangman_stopped": "Hangman game stopped.",
  "hangman_types": "List of \"{0}hangman\" term types:",
  "has": "{0} has {1}",
  "hashtag_error": "Failed finding a definition for that tag.",
  "heads": "Head",
  "height_weight_val": "{0}m/{1}kg",
  "height_weight": "Height/Weight",
  "help_permenu_link": "Manage Permissions",
  "help_run_cmd_too_long": "Commands with over {0} args cannot be run with with interactions.",
  "help_run_cmd": "Run Command",
  "help_running_cmd": "Running command",
  "helpmenu_helptext": "{0} Help Menu",
  "hex_invalid": "Invalid color specified.",
  "hierarchy": "You can't use this command on users with a role higher or equal than yours (or mine) in the role hierarchy.",
  "horribly_wrong": "",
  "humidity": "Humidity",
  "id": "Id",
  "image_search_for": "Image search for:",
  "images_loading": "Images will be reloaded within a few seconds.",
  "imdb_fail": "Failed to find that movie.",
  "index_out_of_range": "Index out of range.",
  "input_invalid_number": "Invalid input. Please enter a number and try again.",
  "inrole_list": "List of users in {0} role",
  "inrole_not_allowed": "You are not allowed to use this command on roles with a lot of users in them to prevent abuse.",
  "insuf_perms_i": "I have insufficient permissions.",
  "insuf_perms_u": "You have insufficient permissions.",
  "insuff_perms": "Insufficient permissions. Requires Bot ownership for global Chat Triggers, and Administrator for server Chat Triggers.",
  "interval:": "Interval:",
  "interval": "Interval",
  "invalid_emojis": "All emojis you've specified are invalid.",
  "invalid_format": "Invalid input format.",
  "invalid_input": "Invalid input.",
  "invalid_lang": "Invalid source or target language.",
  "invalid_params": "Invalid parameters.",
  "invalid_second_param_between": "Invalid second parameter.(Must be a number between {0} and {1})",
  "invalid_value": "Invalid {0} value.",
  "invalid": "Invalid / Can't be found ({0})",
  "invite_deleted": "Invite {0} has been deleted.",
  "invite_filter_channel_off": "Invite filtering disabled on this channel.",
  "invite_filter_channel_on": "Invite filtering enabled on this channel.",
  "invite_filter_server_off": "Invite filtering disabled on this server.",
  "invite_filter_server_on": "Invite filtering enabled on this server.",
  "invite_me": "Invite Me!",
  "item": "Item",
  "joined_discord": "Joined Discord",
  "joined_server": "Joined server",
  "jokes_not_loaded": "Jokes not loaded.",
  "kickdm": "You have been kicked from {0} server.\nReason: {1}",
  "kicked_pl": "Kicked",
  "kicked_user": "User kicked",
  "kickunder_confirm": "Are you sure you want to kick {0} users that are under that server join age? Say `yes` to continue.",
  "kickunder_kicked": "Kicked {0} users under that server join age, and was unable to kick {1} users.\nIf there were any failed kicks please check the bots top role and try again.",
  "kickunder_kicking": "Kicking {0} users..",
  "kickunder_no_users": "No users at or under that account age!",
  "kickunder_preview": "Previewing {0} users who's accounts joined under {1} ago",
  "kickunder_starting": "{0}|| Kicking users under specified join time.",
  "lang_list": "List of languages",
  "lang_set_bot_show": "Bot's language is set to {0} - {1}",
  "lang_set_bot": "Bot's default locale is now {0} - {1}",
  "lang_set_fail": "Failed setting locale. Revisit this command's help.",
  "lang_set_show": "This server's language is set to {0} - {1}",
  "lang_set": "Your server's locale is now {0} - {1}",
  "latlong": "Lat/Long",
  "leaderboard": "Leaderboard",
  "leagues_not_found": "Unable to retrieve data from Path of Exile API.",
  "left": "{0} has left {1}",
  "level_req": "Level Req.",
  "level_up_channel": "Congratulations {0}, You've reached level {1}!",
  "level_up_dm": "Congratulations {0}, You've reached level {1} on {2} server!",
  "level_up_global": "Congratulations {0}, You've reached global level {1}!",
  "level_up_rewards": "Level Up Rewards",
  "level_x": "Level {0}",
  "level": "Level",
  "lgp_none": "No blocked commands or modules.",
  "likes": "Likes",
  "link_filter_channel_off": "Link filtering disabled on this channel.",
  "link_filter_channel_on": "Link filtering enabled on this channel.",
  "link_filter_server_off": "Link filtering disabled on this server.",
  "link_filter_server_on": "Link filtering enabled on this server.",
  "list_all": "List of all Chat Triggers",
  "list_of_commands": "List of commands",
  "list_of_modules": "List of modules",
  "list_of_place_tags": "List of {0}place tags",
  "list_of_repeaters": "List of repeaters",
  "listservers_none": "No servers found on that page.",
  "listservers": "ID: {0}\nMembers: {1}\nOwner ID: {2}",
  "local_perms_reset": "Reset Permissions",
  "location": "Location",
  "log_all": "Logging all events in this channel.",
  "log_disabled": "Logging disabled.",
  "log_events": "Log events you can subscribe to:",
  "log_ignore": "Logging will ignore {0}",
  "log_not_ignore": "Logging will not ignore {0}",
  "log_stop": "Stopped logging {0} event.",
  "log_vc_joined": "{0} joined {1} voice channel",
  "log_vc_left": "{0} left {1} voice channel",
  "log_vc_moved": "{0} moved from {1} to {2}",
  "log": "Logging {0} event in this channel.",
  "logging_command_disabled": "Command Logging has been disabled.",
  "logging_command_enabled": "Command Logging has been enabled.",
  "logging_event_disabled": "Logging has been disabled for the event `{0}`",
  "logging_event_enabled": "Logging has been enabled for the event **{0}** in <#{1}>",
  "magicitems_not_loaded": "Magic Items not loaded.",
  "mal_profile": "{0}'s MAL profile",
  "market_cap": "Market Cap",
  "mashape_api_missing": "Bot owner didn't specify MashapeApiKey. You can't use this functionality.",
  "mass_award": "Awarded {0} to {1} users from {2} role.",
  "mass_kick_failed": "Failed to kick `{0}` of `{1}` members",
  "mass_kick_silly": "We be silly with it :3",
  "mass_kick_success": "Successfully kicked `{0}` of `{1}` members",
  "mass_kick_too_many": "too many to list.",
  "mass_kick": "Mass Kick",
  "mass_kicked_members": "Kicked `{0}` members!",
  "mass_kill_completed": "Mass Banning and Blacklisting of {0} users is complete.",
  "mass_kill_in_progress": "Mass Banning and Blacklisting of {0} users is in progress...",
  "massban_requested_by": "Massban requested by {0}",
  "max_bet_limit": "You can't bet more than {0}",
  "max_playtime_none": "Max playtime has no limit now.",
  "max_playtime_set": "Max playtime set to {0} second(s).",
  "max_queue_unlimited": "Max music queue size set to unlimited.",
  "max_queue_x": "Max music queue size set to {0} track(s).",
  "member_role_already_set": "This is already your member role!",
  "member_role_current": "Your current member role is <@&{0}>",
  "member_role_disabled": "Member Role disabled!",
  "member_role_set": "Member role has been set to <@&{0}>",
  "member_role_updated": "Your member role has been switched from <@&{0}> to <@&{1}>",
  "members": "Members",
  "memory": "Memory",
  "menrole": "{0} has invoked a mention on the following roles",
  "message_from_bo": "Message from {0} `[Bot Owner]`:",
  "message_repeater": "message_repeater",
  "message_sent": "Message sent.",
  "message:": "Message:",
  "messages": "Messages",
  "migration_done": "Migration done!",
  "migration_error": "Error while migrating, check bot's console for more information.",
  "min_bet_limit": "You can't bet less than {0}",
  "min_max": "Min/Max",
  "moderator": "Moderator",
  "modified": "Modified server XP of the user {0} by {1}",
  "module_description_administration": "Moderation, punish users, setup self assignable roles and greet messages",
  "module_description_afk": "Set or cusotmize afk",
  "module_description_chattriggers": "Setup custom bot responses to certain words or phrases",
  "module_description_confessions": "Send anonymous messages to a set channel",
  "module_description_gambling": "Bet on dice rolls, blackjack, slots, coinflips and others",
  "module_description_games": "Play trivia, nunchi, hangman, connect4 and other games",
  "module_description_giveaways": "Start giveaways",
  "module_description_help": "Get command help, descriptions and usage examples",
  "module_description_highlights": "Get notified in DMs when a user says a word or phrase",
  "module_description_multigreets": "Set multiple ultra customizeable greet channels",
  "module_description_music": "Play music from youtube, spotify, uploaded files, and soundcloud",
  "module_description_nsfw": "There should be no need to explain this.",
  "module_description_owneronly": "Used by Sylveon on the public bot or selfhost bot owners",
  "module_description_permissions": "Setup perms for commands, filter words and set up command cooldowns",
  "module_description_rolegreets": "Make welcome messages based on when a user gets a role",
  "module_description_rolestates": "Setup if and how a user gets their previous roles back when they rejoin the server",
  "module_description_searches": "Search for jokes, images of animals, anime and manga",
  "module_description_servermanagement": "Different tools to manage channels, emotes and roles",
  "module_description_starboard": "Setup a customizable starboard channel",
  "module_description_statusroles": "Setup role changes based on user status!",
  "module_description_suggestions": "Setup ultra customizeable suggestions",
  "module_description_userprofile": "Setup a custom user profile to stand out from the others!",
  "module_description_utility": "Manage quotes, get info for users, and more.",
  "module_description_vote": "Setup vote messages and leaderboards!",
  "module_description_xp": "Gain xp based on chat activity, check users' xp cards",
  "module_footer": "{0}cmds {1}",
  "module_help_description": "Do `{0}cmds modulename` to see the commands in a module",
  "module_not_found_or_cant_exec": "Either the module doesn't exist, or you can't run any of the commands in the specified module.",
  "module_not_found": "That module does not exist.",
  "module_page_empty": "No module on this page.",
  "module": "Module: {0}",
  "modules_footer": "Type `{0}cmds ModuleName` to get a list of commands in that module. eg `{0}cmds games`",
  "moved_permission": "Moved permission {0} from #{1} to #{2}",
  "moved": "moved",
  "msg_del": "Message deleted in #{0}",
  "msg_not_found": "Message not found.",
  "msg_update": "Message updated in #{0}",
  "music_quality_set": "Music quality has been set to {0}. You will have to destroy and restart music player for the change to take effect.",
  "must_be_in_voice": "You need to be in a voice channel on this server.",
  "mute_error": "I don't have the permission necessary for that most likely.",
  "mute_perms": "You can't mute a user who has a role higher than your highest role in the role hierarchy unless you're the owner of the server.",
  "mute_role_set": "New mute role set.",
  "mute_role": "Current mute role is {0}",
  "muted_pl": "Muted",
  "muted_sn": "Muted",
  "name": "Name",
  "nameban_cancelled": "Nameban cancelled. No users will be actioned.",
  "nameban_confirm": "Are you sure you want to ban {0} users? This action cannot be undone.",
  "nameban_message_delete": "How many days of messages should it delete? Maximum of 14 days. Put 0 to not delete any messages.",
  "nameban_preview_count": "Previewing {0} users who's names contain {1}",
  "need_admin": "I need **Administration** permission to do that.",
  "new_chat_trig": "New Chat Trigger",
  "new_gamestatus_event": "Type the secret code in any channel to receive {1}\n{2} left to be awarded.",
  "new_msg": "New message",
  "new_nick": "New nickname",
  "new_reaction_event": "Add {0} reaction to this message to get {1}\n{2} left to be awarded.",
  "new_topic": "New topic",
  "nick_change": "Nickname changed",
  "nickname": "Nickname",
  "ninja_not_found": "Currency with that name was not found or an invalid league name was provided.",
  "no_active_repeaters": "No active repeaters.",
  "no_channel_found": "No channel found.",
  "no_costs": "No costs set.",
  "no_found_id": "No Chat Trigger found with that id.",
  "no_found": "No Chat Trigger found.",
  "no_invites": "No invites on this page.",
  "no_level_up_rewards": "No level up reward on this page.",
  "no_more_cards": "No more cards in the deck.",
  "no_player": "No active music player.",
  "no_reaction_roles": "There are no ReactionRole features enabled on this server.",
  "no_redundant:": "Won't post duplicate message.",
  "no_results": "No results found.",
  "no_roles_on_page": "No roles on this page.",
  "no_search_results": "No search results.",
  "no_shard_id": "No shard with that ID found.",
  "no_shards_on_page": "No shards on this page.",
  "no_snipes": "There is nothing to snipe!",
  "no_topic_set": "No topic set.",
  "no_user_on_this_page": "No users on this page.",
  "no_users_found_nameban": "No users found with that name. Please try again.",
  "no_users_found": "No user found.",
  "no_vcroles": "There are no voice channel roles.",
  "no_votes_cast": "No votes cast.",
  "nobody_playing_game": "Nobody is playing that game.",
  "nobody": "Nobody",
  "not_an_easter_egg": "<:ChannelCategory:816771723264393236>",
  "not_enough": "You don't have enough {0}",
  "not_excluded": "{0} is no longer excluded from the XP system on this server.",
  "not_found": "Not found.",
  "not_in_voice": "You are not in a voice channel on this server.",
  "now_playing": "Now playing",
  "nsfw_set_false": "NSFW has been disabled on this channel.",
  "nsfw_set_true": "NSFW has been enabled on this channel.",
  "nunchi_created": "Nunchi game created. Waiting for users to join.",
  "nunchi_ended_no_winner": "Nunchi game ended with no winner.",
  "nunchi_ended": "Nunchi game ended. {0} won",
  "nunchi_failed_to_start": "Nunchi failed to start because there were not enough participants.",
  "nunchi_joined": "Joined nunchi game. {0} users joined so far.",
  "nunchi_next_number": "Number registered. Last number was {0}.",
  "nunchi_round_ended_boot": "Nunchi round ended due to timeout of some users. These users are still in the game: {0}",
  "nunchi_round_ended": "Nunchi round ended. {0} is out of the game.",
  "nunchi_round_started": "Nunchi round started with {0} users. Start counting from the number {1}.",
  "nunchi_started": "Nunchi game started with {0} participants.",
  "obsolete": "⚠ Obsolete, use {0} instead.",
  "of_command": "command",
  "of_module": "module",
  "old_msg": "Old message",
  "old_nick": "Old nickname",
  "old_topic": "Old topic",
  "on_hold": "On-hold",
  "option_disabled": "{0} option is now disabled for Chat Trigger with id {1}.",
  "option_enabled": "{0} option is now enabled for Chat Trigger with id {1}.",
  "options": "Options",
  "original_url": "Original url",
  "osu_api_key": "An osu! API key is required.",
  "osu_failed": "Failed retrieving osu! signature.",
  "osu_user_not_found": "User not found.",
  "out_of_stock": "Out of stock.",
  "over_x": "Found over {0} images. Showing random {0}.",
  "ow_user_not_found": "User not found! Please check the Region and BattleTag before trying again.",
  "owned_waifus_total": "Total value of owned waifus",
  "owner_ids": "Owner IDs",
  "owner": "Owner",
  "page": "page {0}",
  "paused": "Music playback paused.",
  "perm_not_found": "Can't find permission at index #{0}",
  "perm_out_of_range": "No permission found on that index.",
  "perm_override_all_confirm": "Are you sure that you want to remove **ALL** discord permission overrides on this server? This action is irreversible.",
  "perm_override_all": "All discord permission overrides have been cleared.",
  "perm_override_page_none": "No override on this page.",
  "perm_override_reset": "Discord Permission Overrides for this command have been cleared.",
  "perm_override": "Users will need {0} permission in order to run {1} command.",
  "perm_overrides": "Discord Permission Overrides",
  "perm_prevent": "Permission number #{0} {1} is preventing this action.",
  "perm_quick_options_add_categorys": "Add category overwrights",
  "perm_quick_options_add_channels": "Add channel overwrights",
  "perm_quick_options_add_roles": "Add role overwrights",
  "perm_quick_options_add_users": "Add user overwrights",
  "perm_quick_options_allow": "Allow",
  "perm_quick_options_deny": "Deny",
  "perm_quick_options_disable_disabled": "Enable Command",
  "perm_quick_options_disable_enabled": "Disable Command",
  "perm_quick_options_fallback": "Fallback",
  "perm_quick_options_overwright": "Overwright",
  "perm_quick_options_redundant_count": "Redundant Permission Count",
  "perm_quick_options_redundant_explainer": "Sometimes a command is both enabled and disabled in the same situation. When this happens Mewdeko can't always figure out what she should do, and makes a best guess. In order to avoid errors displaying the permission config menu or unintended behavior you need to clear **all** of the redundant permissions affecting this command before it can be displayed. Press the button below to have an interactive guide help you fix this command's permissions.",
  "perm_quick_options_redundant_resolve": "Fix Redundant Permissions",
  "perm_quick_options_redundant_tool_clear_description": "Use Mewdeko's default behavior in this situation.",
  "perm_quick_options_redundant_tool_clear": "Clear",
  "perm_quick_options_redundant_tool_current_description": "Use the current behavoir in this situation.",
  "perm_quick_options_redundant_tool_current": "Current Behavoir",
  "perm_quick_options_redundant_tool_custom": "Custom Command",
  "perm_quick_options_redundant_tool_disable_description": "Disables the command in this situation.",
  "perm_quick_options_redundant_tool_disable": "disable",
  "perm_quick_options_redundant_tool_enable": "Enable",
  "perm_quick_options_redundant_tool_enabled_description": "Enables the command in this situation.",
  "perm_quick_options_redundant_tool_priority_disclaimer": "If you select \"Enable\" or \"disable\" or \"Current\" you choice will be applied to the **highest** prority overwright and all others will be cleared, if you select \"Clear\" all overwrights will be cleared. Selecting \"Current\" ensures command behavoir will **not** change.",
  "perm_quick_options_redundant_tool_ptar": "Primary Target Type",
  "perm_quick_options_redundant_tool_ptarid": "Primary Target",
  "perm_quick_options_redundant_tool_star": "Command Target Type",
  "perm_quick_options_redundant_tool_starid": "Command Name",
  "perm_quick_options_redundant": "Redundant Permissions",
  "perm_quick_options": "Quick Options:",
  "permrole_changed": "Users now require {0} role in order to edit permissions.",
  "permrole_not_set": "Permission role is not set.",
  "permrole_reset": "Permission role is reset.",
  "permrole": "Current permissions role is {0}.",
  "perms_quick_options_category_remove_allow": "Remove allow permissions from {0}",
  "perms_quick_options_category_remove_deny": "Remove deny permissions from {0}",
  "perms_quick_options_category_remove": "Remove category // a perm menu failed to populate",
  "perms_quick_options_channel_remove_allow": "Remove allow permissions from {0}",
  "perms_quick_options_channel_remove_deny": "Remove deny permissions from {0}",
  "perms_quick_options_channel_remove": "Remove Channel // a perm menu failed to populate",
  "perms_quick_options_role_remove_allow": "Remove allow permissions from {0}",
  "perms_quick_options_role_remove_deny": "Remove deny permissions from {0}",
  "perms_quick_options_role_remove": "Remove Roles // a perm menu failed to populate",
  "perms_quick_options_user_remove_allow": "Remove allow permissions from {0}",
  "perms_quick_options_user_remove_deny": "Remove deny permissions from {0}",
  "perms_quick_options_user_remove": "Remove Users // a perm menu failed to populate",
  "perms_reset": "Permissions for this server are reset.",
  "perms": "Error. Most likely I don't have sufficient permissions.",
  "pick_pl": "Pick them up by typing `{0}pick`",
  "pick_sn": "Pick it up by typing `{0}pick`",
  "picked": "picked {0}",
  "plan_to_watch": "Plan to watch",
  "planted": "{0} planted {1}",
  "platform": "Platform",
  "play_limit": "{0}s limit",
  "player_queue": "Player queue - Page {0}/{1}",
  "playing_song": "Playing song #{0}",
  "playlist_delete_fail": "Failed to delete that playlist. It either doesn't exist, or you are not its author.",
  "playlist_deleted": "Playlist deleted.",
  "playlist_id_not_found": "Playlist with that ID doesn't exist.",
  "playlist_queue_complete": "Playlist queue complete.",
  "playlist_saved": "Playlist saved",
  "playlists_page": "Page {0} of saved playlists",
  "playlists": "`#{0}` - **{1}** by *{2}* ({3} songs)",
  "pog_not_found": "Unable to retrieve data from Path of Exile Wiki or invalid unique item.",
  "pokemon_ability_none": "No ability found.",
  "pokemon_none": "No pokemon found.",
  "poll_already_running": "Poll is already running on this server.",
  "poll_closed": "Poll Closed!",
  "poll_created": "📃 {0} has created a poll",
  "poll_invalid_input": "Invalid input. You have to have a question and at least 2 answers, all separated by a `;`.",
  "poll_result": "`{0}.` {1} with {2} votes.",
  "poll_vote_private": "Private Message me with the corresponding number of the answer.",
  "poll_vote_public": "Send a Message here with the corresponding number of the answer.",
  "poll_voted": "{0} voted.",
  "prefix_current": "Prefix on this server is {0}",
  "prefix_new": "Changed prefix on this server from {0} to {1}",
  "presence_txt": "{0} Servers\n{1} Text Channels\n{2} Voice Channels",
  "presence_updates": "Presence updates",
  "presence": "Presence",
  "preview_or_execute": "Preview or Execute bans?",
  "preview": "Preview",
  "price": "Price",
  "profile_link": "Profile link:",
  "pronouns_cleared_self": "Your pronouns have been reset to the default value (pronoun db).",
  "pronouns_cleared": "The user's pronouns have been cleared and cannot be recovered.",
  "pronouns_disabled_user": "This user has been banned from pronouns commands. Their pronouns have been cleared and cannot be recovered.",
  "pronouns_disabled": "You cannot use pronouns commands because {0}. Join the support server for assistance.",
  "pronouns_internal_get": "{0} uses {1} pronouns",
  "pronouns_internal_no_override": "Your pronouns are not overwritten.",
  "pronouns_internal_self": "You use {0} pronouns.",
  "pronouns_internal_update": "Your pronouns are now {0}.",
  "pronouns_overwrite_button": "Overwrite Pronouns",
  "pronouns_overwrite_clear_button": "Clear Pronouns Overwrite",
  "pronouns_pndb_get": "{0} uses {1} pronouns (retrieved from [PronounDB](https://pronoundb.org/docs))",
  "pronouns_pndb_special": "{0} uses {1} (retrieved from [PronounDB](https://pronoundb.org/docs)).",
  "pronouns_report_button": "Report Pronouns",
  "pronouns_reported": "Pronouns reported, thanks for helping keep mewdeko safe.",
  "prot_active": "Active protections",
  "prot_cant_use_time": "You can't specify duration for this punishment action.",
  "prot_disable": "{0} has been **disabled** on this server.",
  "prot_enable": "{0} Enabled",
  "prot_error": "Error. I need ManageRoles permission",
  "prot_none": "No protection enabled.",
  "protection_not_running": "{0} protection is not enabled.",
  "prune_canceled_member_upsell": "Canceled prune. As a reminder if you meant to prune members in your members role, set it with {await guildSettingsService.GetPrefix(ctx.Guild)}memberrole role and run this with -y at the end of the command. You can also specify which roles you want to prune in by rerunning this with a role list at the end.",
  "prune_canceled": "Prune canceled",
  "prune_confirm": "Are you sure you want to prune {0} Members?",
  "prune_no_members_upsell": "No users to prune, if you meant to prune users inyour member role please set it with {await guildSettingsService.GetPrefix(ctx.Guild)}memberrole role, and rerun the command but specify -y after the time. You can also specify which roles you want to prune in by rerunning this with a role list at the end.",
  "prune_no_members": "No users to prune",
  "pruned_members": "Pruned {0} members",
  "pruning_members": "Pruning {0} members...",
  "punishment_unsupported": "You can't use {0} punishment action with this feature.",
  "quality": "Quality:",
  "question": "Question",
  "queue_cleared": "Music queue cleared.",
  "queue_full": "Queue is full at {0}/{0}.",
  "queue_stopped": "Player is stopped. Use {0} command to start playing.",
  "queue": "Queue",
  "queued_song": "Queued song",
  "quick_playtime": "Quick playtime",
  "quick_wins": "Quick wins",
  "quote_added_new": "Quote #{0} added.",
  "quote_added": "quote_added",
  "quote_deleted": "Quote #{0} deleted.",
  "quote_id": "Quote {0}",
  "quotes_deleted": "Deleted all quotes with {0} keyword.",
  "quotes_notfound": "No quotes found matching the quote ID specified.",
  "quotes_page_none": "No quotes found on that page.",
  "quotes_page": "Page {0} of quotes",
  "quotes_remove_none": "No quotes found which you can remove.",
  "race_failed_starting": "Failed starting the race. Another race is probably running.",
  "race_not_exist": "No race exists on this server",
  "rafflecur_already_joined": "You have already joined this raffle or the value you used is not valid.",
  "rafflecur_ended": "{0} raffle ended. {1} won {2}!",
  "rafflecur_joined": "User {0} joined the raffle",
  "rafflecur": "{0} Currency Raffle",
  "raffled_user": "Raffled user",
  "raid_cnt": "User threshold must be between {0} and {1}.",
  "raid_stats": "If {0} or more users join within {1} seconds, I will {2} them.",
  "raid_time": "Time must be between {0} and {1} seconds.",
  "random_unique_item": "Random unique item.",
  "rar_err": "Failed to remove roles. I have insufficient permissions.",
  "rar": "Successfully removed all roles from user {0}",
  "rating": "Rating",
  "rc_perms": "Error occurred due to invalid color or insufficient permissions.",
  "rc": "Color of {0} role has been changed.",
  "reaction_cant_access": "I can't access {0} reaction. You can only use emotes from servers I'm in.",
  "reaction_role_removed": "Removed ReactionRole message #{0}",
  "reaction_roles_full": "You've reached the limit on ReactionRole messages. You have to delete some.",
  "reaction_roles_message": "**Roles:** {0}\n**Content:** {1}",
  "reason": "Reason",
  "redacted_too_long": "Redacted because it's too long.",
  "region": "Region",
  "registered_on": "Registered on",
  "remind_invalid_format": "Not a valid remind format. Check the command list.",
  "remind_too_long": "Remind time has exceeded maximum.",
  "remind": "I will remind {0} to {1} {2} `({3:d.M.yyyy.} at {4:HH:mm})`",
  "reminder_deleted": "Reminder #{0} was deleted.",
  "reminder_list": "List of reminders",
  "reminder_not_exist": "Reminder at that index does not exist.",
  "reminders_none": "No reminder on this page.",
  "remove_roles": "have had their roles removed",
  "removed_roles": "Removed Roles",
  "removed_song_error": "Song on that index doesn't exist",
  "removed_song": "Removed song",
  "removed": "removed permission #{0} - {1}",
  "remrole_err": "Failed to remove role. I have insufficient permissions.",
  "remrole": "Successfully removed role {0} from user {1}",
  "renrole_err": "Failed to rename role. I have insufficient permissions.",
  "renrole_perms": "You can't edit roles higher than either your, or my highest role.",
  "renrole": "Role renamed.",
  "repeat_invoke_none": "No repeating messages found on this server.",
  "repeater_channel_update": "Repeater channel updated to {0}",
  "repeater_created": "Repeater Created",
  "repeater_initial": "Repeater Created.",
  "repeater_msg_update": "Repeater message updated to:\n{0}",
  "repeater_redundant_no": "Repeater **#{0}** won't post redundant messages anymore.",
  "repeater_redundant_yes": "Repeater **#{0}** will post redundant messages from now on.",
  "repeater_removed": "Repeater #{0} Removed",
  "repeater_stopped": "#{0} stopped.",
  "repeater": "Repeating {0} every {1} day(s), {2} hour(s) and {3} minute(s).",
  "repeaters_list": "List of repeaters",
  "repeaters_none": "No repeaters running on this server.",
  "repeating_cur_song": "Repeating current song",
  "repeating_none": "Player will stop once the end of queue is reached.",
  "repeating_playlist": "Repeating playlist",
  "repeating_queue": "Player will repeat the queue.",
  "repeating_track_stopped": "Current track repeat stopped.",
  "repeating_track": "Player will keep repeating the same track.",
  "reprm": "Removed the playing message: {0}",
  "requires": "Requires",
  "reset_server_confirm": "Are you sure that you want to reset the XP of all users on the server?",
  "reset_server": "XP of all users on the server has been reset.",
  "reset_user_confirm": "Are you sure that you want to reset specified user's XP on this server?",
  "reset_user": "User with id {0} has had their XP reset on this server.",
  "reset": "Xp Reset",
  "response": "Response",
  "restart_fail": "You must setup RestartCommand in your credentials.json",
  "restarting": "Restarting.",
  "result": "Result",
  "resumed": "Music playback resumed.",
  "rh": "rh",
  "role_added": "Role {0} has been added to the list in group {1}.",
  "role_clean": "{0} not found.Cleaned up.",
  "role_grant_type": "Role Grant Type",
  "role_in_list": "Role {0} is already in the list.",
  "role_reward_added": "Users who reach level {0} will receive {1} role.",
  "role_reward_cleared": "Reaching level {0} will no longer reward a role.",
  "role_reward": "{0} role",
  "rolehoist_disabled": "Role {0} is no longer displayed separately from online members.",
  "rolehoist_enabled": "Role {0} is now displayed separately from online members.",
  "roleid": "{0} of the role {1} is {2}",
  "roles_all_page": "Page #{0} of all roles on this server:",
  "roles_page": "Page #{0} of roles for {1}",
  "roles": "Roles",
  "roll_duel_already_challenged": "That user already challenged you to a roll duel.",
  "roll_duel_challenge": "challenged {1} for a roll duel for {2}",
  "roll_duel_no_funds": "Either you or your opponent don't have enough funds.",
  "roll_duel_timeout": "Roll duel challenge was not accepted.",
  "roll_duel": "Roll Duel",
  "roll_fail_dice_sides": "Dice must have between 0 and {0} sides.",
  "roll_fail_invalid_string": "Roll input must be a collection of dice in format `<count>D<sides>`, for example `1d10` would roll a ten sided die",
  "roll_fail_new_dm": "Time to get a new DM\n{0}.",
  "roll_fail_no_dice": "You must have at least 1 die",
  "roll_fail_too_large": "I dropped a few dice... try rolling a smaller value.",
  "roll": "You rolled {0}.",
  "ropl_added": "Added.",
  "ropl_disabled": "Rotating playing status disabled.",
  "ropl_enabled": "Rotating playing status enabled.",
  "ropl_list": "Here is a list of rotating statuses:\n{0}",
  "ropl_not_set": "No rotating playing statuses set.",
  "rpl_disabled": "Repeat playlist disabled.",
  "rpl_enabled": "Repeat playlist enabled.",
  "rps_draw": "It's a draw! Both picked {0}",
  "rps_win": "{0} won! {1} beats {2}",
  "rrc_no_colors": "No colors are in the correct format. Use `#00ff00` for example.",
  "rrc_start": "Started rotating {0} role's color.",
  "rrc_stop": "Stopped rotating colors for the {0} role",
  "rx_disable": "Disabled usage of {0} {1} for {2} role.",
  "rx_enable": "Enabled usage of {0} {1} for {2} role.",
  "sad_disabled": "Songs will no longer be deleted from the music queue when they finish playing.",
  "sad_enabled": "Songs will be deleted from the music queue when they finish playing.",
  "sb_user": "User soft-banned",
  "sbdm": "You have been soft-banned from {0} server.\nReason: {1}",
  "scadd": "New startup command added.",
  "score": "Score:",
  "scrm_fail": "Startup command not found.",
  "scrm": "Startup command successfully removed.",
  "search_for": "Search for:",
  "sec": "sec.",
  "second_larger_than_first": "Second number must be larger than the first one.",
  "self_assign_already_excl": "You already have {0} exclusive self-assigned role.",
  "self_assign_already": "You already have {0} role.",
  "self_assign_are_exclusive": "You can only choose 1 role from each group.",
  "self_assign_are_not_exclusive": "You can choose any number of roles from any group.",
  "self_assign_excl": "Self assigned roles are now exclusive!",
  "self_assign_group": "Group {0}",
  "self_assign_level_req": "Self assignable role {0} now requires at least server level {1}.",
  "self_assign_list": "There are {0} self assignable roles",
  "self_assign_no_excl": "Self assigned roles are now not exclusive!",
  "self_assign_not_have": "You don't have {0} role.",
  "self_assign_not_level": "That self-assignable role requires at least server level {0}.",
  "self_assign_not": "That role is not self-assignable.",
  "self_assign_perms": "I am unable to add that role to you. `I can't add roles to owners or other roles higher than my role in the role hierarchy.`",
  "self_assign_rem": "{0} has been removed from the list of self-assignable roles.",
  "self_assign_remove": "You no longer have {0} role.",
  "self_assign_success": "You now have {0} role.",
  "server_delmsgoncmd": "Server Setting",
  "server_info": "Server info",
  "server_is_excluded": "This server is excluded.",
  "server_is_not_excluded": "This server is not excluded.",
  "server_leaderboard": "Server XP Leaderboard",
  "server_level": "Server Level",
  "server_permission": "Requires {0} server permission.",
  "server": "Server",
  "serverid": "{0} of this server is {1}",
  "set_avatar": "New avatar set!",
  "set_channel_name": "New channel name set.",
  "set_game": "New game set!",
  "set_music_channel": "I will now output playing, finished, paused and removed songs in this channel.",
  "set_stream": "New stream set!",
  "set_topic": "New channel topic set.",
  "setrole_err": "Failed to add role. I have insufficient permissions.",
  "setrole": "Successfully added role {0} to user {1}",
  "setting_not_found": "Invalid setting key.",
  "shard_reconnected": "Shard {0} reconnected.",
  "shard_reconnecting": "Shard {0} reconnecting.",
  "shard_stats": "Shard stats",
  "shard": "Shard",
  "shop_buy_error": "Error DMing item. You've been refunded.",
  "shop_item_add": "Shop item added",
  "shop_item_not_found": "No item on that index found.",
  "shop_item_purchase": "Item purchase successful.",
  "shop_item_rm": "Shop item removed",
  "shop_item_wrong_type": "That shop entry does not support item adding.",
  "shop_list_item_added": "Item successfully added.",
  "shop_list_item_not_unique": "That item is already added.",
  "shop_none": "No shop items found on this page.",
  "shop_purchase": "Purchase on {0} server",
  "shop_role_already_bought": "You already bought this role.",
  "shop_role_not_found": "Role which is being sold no longer exists.",
  "shop_role_purchase_error": "Error assigning role. Your purchase has been refunded.",
  "shop_role_purchase": "You've successfully purchased {0} role.",
  "shop_role": "You will get {0} role.",
  "shop": "Shop",
  "short_url": "Short url",
  "shorten_fail": "Failed to shorten that url.",
  "showemojis_none": "No special emojis found.",
  "showemojis": "**Name:** {0} **Link:** {1}",
  "shuffling_playlist": "Shuffling songs",
  "shutting_down": "Shutting down",
  "skipped_to": "Skipped to `{0}:{1}`",
  "slot_bet": "Bet",
  "slot_jackpot": "WOAAHHHHHH!!! Congratulations!!! x{0}",
  "slot_single": "A single {0}, x{1}",
  "slot_three": "Wow! Lucky! Three of a kind! x{0}",
  "slot_two": "Good job! Two {0} - bet x{1}",
  "slowmode_desc": "Users can't send more than {0} messages every {1} seconds.",
  "slowmode_disabled": "Slow mode disabled.",
  "slowmode_init": "Slow mode initiated",
  "slowmodewl_role_start": "Slowmode will now ignore {0} role.",
  "slowmodewl_role_stop": "Slowmode will no longer ignore {0} role.",
  "slowmodewl_user_start": "Slowmode will now ignore user {0}.",
  "slowmodewl_user_stop": "Slowmode will no longer ignore user {0}.",
  "snipe_not_enabled": "Sniping is not enabled in this server! Please tell an admin to use `{0}snipeset enable` to enable it.",
  "snipe_request": "Snipe requested by {0} || Message deleted {1} ago || Invite me!",
  "snipe_set": "Sniping is now `{0}`",
  "snipe_slash_not_enabled": "Sniping is not enabled in this server! Please tell an admin to use `/snipe set true` to enable it.",
  "soft_banned_pl": "soft-banned",
  "something_went_wrong": "Something went wrong.",
  "song_moved": "Song moved",
  "song_not_found": "No song found.",
  "song_skips_after": "Songs will skip after {0}",
  "songs_shuffle_disable": "Songs will no longer shuffle.",
  "songs_shuffle_enable": "Songs will shuffle from now on.",
  "spam_ignore": "{0} will ignore this channel.",
  "spam_not_ignore": "{0} will no longer ignore this channel.",
  "spam_stats": "If a user posts {0} same messages in a row, I will {1} them.\n    __IgnoredChannels__: {2}",
  "specify_search_params": "Please specify search parameters.",
  "sql_confirm_exec": "Confirm execution of the following SQL command",
  "staff_role_already_set": "This is already your staff role!",
  "staff_role_current": "Your current staff role is <@&{0}>",
  "staff_role_disabled": "Staff Role disabled!",
  "staff_role_missing": "No Staff Role Set!",
  "staff_role_set": "Staff role has been set to <@&{0}>",
  "staff_role_updated": "Your staff role has been switched from <@&{0}> to <@&{1}>",
  "start_event_fail": "Event failed to start. Another event is running, or there was an error starting the event.",
  "startcmdlist_none": "No startup commands on this page.",
  "startcmds_cleared": "Cleared all startup commands.",
  "started": "Started. Reposting every {0}s.",
  "stats_cleared": "Stats cleared for {0} Chat Trigger.",
  "stats_not_found": "No stats for that trigger found, no action taken.",
  "stats_songs": "Playing {0} songs, {1} queued.",
  "stats": "Chat Trigger Stats",
  "status": "Status",
  "stopped": "Stopped reposting.",
  "store_url": "Store url",
  "stream_message_reset": "Announcement message for {0} stream has been reset.",
  "stream_message_set": "Announcement message when {0} stream goes online has been set.",
  "stream_no": "No such stream.",
  "stream_not_added": "Stream was not added. Either stream doesn't exist, that platform is unsupported, or you've reached the maximum number of streams allowed.",
  "stream_not_exist": "Stream probably doesn't exist.",
  "stream_not_following": "You're not following that stream on this server.",
  "stream_off_disabled": "Stream notifications will no longer show when a stream goes offline.",
  "stream_off_enabled": "Stream notifications will now show when a stream goes offline.",
  "stream_removed": "Removed {0}'s stream ({1}) from notifications.",
  "stream_role_bl_add_fail": "User {0} is already blacklisted.",
  "stream_role_bl_add": "User {0} will never receive the stream role.",
  "stream_role_bl_rem_fail": "User {0} is not blacklisted.",
  "stream_role_bl_rem": "User {0} is no longer blacklisted.",
  "stream_role_disabled": "Stream role feature has been disabled.",
  "stream_role_enabled": "When a user from {0} role starts streaming, I will give them {1} role.",
  "stream_role_kw_reset": "Stream role keyword reset.",
  "stream_role_kw_set": "Streamers now require {0} keyword in order to receive the role.",
  "stream_role_wl_add_fail": "User {0} is already whitelisted.",
  "stream_role_wl_add": "User {0} will receive the stream role even if they don't have the keyword in the stream title.",
  "stream_role_wl_rem_fail": "User {0} is not whitelisted.",
  "stream_role_wl_rem": "User {0} is no longer whitelisted.",
  "stream_tracked": "I will notify this channel whenever this stream comes online.",
  "streamer_offline": "Streamer {0} is offline.",
  "streamer_online": "Streamer {0} is online with {1} viewers.",
  "streaming": "Streaming",
  "streams_cleared": "All {0} followed streams on this server have been removed.",
  "streams_follow_title": "Streams you're following",
  "streams_following": "streams_following",
  "streams_none": "You are not following any streams on this server.",
  "submissions_closed": "Submissions closed",
  "suggest_channel_not_set": "The suggestions channel is not set!",
  "sunrise": "Sunrise",
  "sunset": "Sunset",
  "sx_disable": "Disabled usage of {0} {1} on this server.",
  "sx_enable": "Enabled usage of {0} {1} on this server.",
  "table_of_contents": "Table of contents",
  "tag": "Tag",
  "tails": "Tail",
  "take_fail": "was unable to take {0} from {1} because the user doesn't have that much {2}!",
  "take": "successfully took {0} from {1}",
  "temperature": "Temperature",
  "template_reloaded": "Xp template has been reloaded.",
  "text_chan_created": "Text channel created.",
  "text_chan_destroyed": "Text channel destroyed.",
  "text_channels": "Text channels",
  "thanks_for_voting": "Thank you for voting, {0}",
  "time_format": "{0}h {1}m {2}s",
  "time_new": "Time",
  "time_too_long": "Time you've specified is too long.",
  "time": "Time in {0} is {1} - {2}",
  "timely_already_claimed": "You've already claimed your timely reward. You can get it again in {0}.",
  "timely_none": "Bot owner didn't specify a timely reward.",
  "timely_reset": "All users will be able to claim timely currency again.",
  "timely_set_none": "Users will not be able to claim any timely currency.",
  "timely_set": "Users will be able to claim {0} every {1}h",
  "timely": "You've claimed your {0}. You can claim again in {1}h",
  "timeout_length_too_long": "The maximum length of a timeout is 28 days.",
  "timeout_needs_time": "You cannot have no time for a timeout!",
  "timeout_removed": "Timeout removed for {0}.",
  "timeout_set": "Timeout enabled for {0} and set to {1}.",
  "timezone_db_api_key": "You need to activate your TimezoneDB API key. You can do so by clicking on the link you've received in the email with your API key.",
  "timezone_guild": "Timezone for this guild is `{0}`",
  "timezone_not_found": "Timezone not found. Use \"timezones\" command to see the list of available timezones.",
  "timezone": "Timezone",
  "timezones_available": "Available Timezones",
  "title": "Title:",
  "to_position": "To position",
  "toggle_descriptions": "Toggle Descriptions",
  "togtub_room_link": "Here is your room link:",
  "tonetags_aliases": "Aliases",
  "tonetags_none_body": "No tone tags were found, try checking something else or searching for individual tags.",
  "tonetags_none": "No tone tags",
  "tonetags_not_found": "Not Found",
  "tonetags_source": "Source",
  "tonetags_sources": "Sources",
  "tonetags_tonetags": "ToneTags",
  "tonetags_upsell": "If you want to add tonetags to mewdeko, or implement our tonetag searching in your own project check out CottageDwellingCat's tonetag json at https://github.com/CottageDwellingCat/tone-tags",
  "top_3_fav_anime": "Top 3 favorite anime:",
  "total_average": "Total: {0} Average: {1}",
  "total": "Total",
  "transactions": "Transactions of user {0}",
  "translation": "Translation:",
  "trigger_add_invalid": "Chat Triggers must have non-whitesapce content in both the name key and message.",
  "trigger_reactions": "Reactions",
  "trigger": "Trigger",
  "trivia_already_running": "Trivia game is already running on this server.",
  "trivia_game": "Trivia Game",
  "trivia_guess": "{0} guessed it! The answer was: {1}",
  "trivia_none": "No trivia is running on this server.",
  "trivia_points": "{0} has {1} points",
  "trivia_quit": "You can stop trivia by typing {0}",
  "trivia_stopping": "Stopping after this question.",
  "trivia_times_up": "Time's up! The correct answer was {0}",
  "trivia_win": "{0} guessed it and WON the game! The answer was: {1}",
  "ttt_a_draw": "A draw!",
  "ttt_against_yourself": "You can't play against yourself.",
  "ttt_already_running": "TicTacToe Game is already running in this channel.",
  "ttt_created": "has created a game of TicTacToe.",
  "ttt_has_won": "{0} has won!",
  "ttt_matched_three": "Matched three",
  "ttt_no_moves": "No moves left!",
  "ttt_time_expired": "Time expired!",
  "ttt_users_move": "{0}'s move",
  "type": "Type",
  "types": "Types",
  "ud_error": "Failed finding definition for that term.",
  "unable_to_dm_user": "DMing user failed.",
  "unbanned_user": "User {0} has been unbanned.",
  "unblacklisted": "Unblacklisted {0} with ID {1}",
  "undeafen": "Undeafen successful.",
  "uneditable": "uneditable",
  "unique_items_left": "{0} unique items left.",
  "unlimited": "unlimited",
  "unmuted_sn": "Unmuted",
  "unset_music_channel": "I will now output playing, finished, paused and removed songs in the channel music was started from.",
  "updates_check_set": "Checking for updates have been set to {0}.",
  "uptime": "Uptime",
  "url": "Url",
  "usage": "Usage",
  "user_banned": "User banned",
  "user_chat_mute_time": "{0} has been **chat muted** for {1}.",
  "user_chat_mute": "{0} has been **muted** from chatting.",
  "user_chat_unmute": "{0} has been **unmuted** from chatting.",
  "user_joined": "User joined",
  "user_left": "User left",
  "user_muted_time": "{0} has been **muted** from text and voice chat for {1}.",
  "user_muted": "{0} has been **muted** from text and voice chat.",
  "user_nick": "Nickname of the user {0} changed to {1}",
  "user_not_found": "User not found.",
  "user_role_add": "User's role added",
  "user_role_rem": "User's  role removed",
  "user_status_change": "{0} is now {1}",
  "user_unbanned": "User unbanned",
  "user_unmuted": "{0} has been **unmuted** from text and voice chat.",
  "user_vjoined": "{0} has joined {1} voice channel.",
  "user_vleft": "{0} has left {1} voice channel.",
  "user_vmoved": "{0} moved from {1} to {2} voice channel.",
  "user_voice_mute_time": "{0} has been **voice muted** for {1}.",
  "user_voice_mute": "{0} has been **voice muted**.",
  "user_voice_unmute": "{0} has been **voice unmuted**.",
  "user_warned_and_punished": "User {0} has been warned and {1} punishment has been applied.",
  "user_warned": "User {0} has been warned.",
  "userid": "{0} of the user {1} is {2}",
  "username_changed": "Username changed",
  "username": "Username",
  "users": "Users",
  "ux_disable": "Disabled usage of {0} {1} for {2} user.",
  "ux_enable": "Enabled usage of {0} {1} for {2} user.",
  "vc_role_list": "Voice channel roles",
  "vcrole_added": "Users who join {0} voice channel will get {1} role.",
  "vcrole_not_found": "That voice channel doesn't have a VcRole.",
  "vcrole_removed": "Users who join {0} voice channel will no longer get a role.",
  "verbose_errors_disabled": "Incorrectly used commands will no longer show errors.",
  "verbose_errors_enabled": "Incorrectly used commands will now show errors.",
  "verbose_false": "I will no longer show permission warnings.",
  "verbose_true": "I will now show permission warnings.",
  "viewers": "Viewers",
  "voice_chan_created": "Voice channel created",
  "voice_chan_destroyed": "Voice channel destroyed",
  "voice_channels": "Voice channels",
  "volume_24h": "Volume (24h)",
  "volume_input_invalid": "Volume must be between 0 and 100",
  "volume_set": "Volume set to {0}%",
  "vote_already_claimed": "You've already claimed your vote reward. You can get it again in {0} once you vote again.",
  "vs": "{0} vs {1}",
  "vt_disabled": "Disabled voice + text feature.",
  "vt_enabled": "Enabled voice + text feature.",
  "vt_exit": "I don't have **manage roles** and/or **manage channels** permission, so I cannot run `voice+text` on {0} server.",
  "vt_no_admin": "You are enabling/disabling this feature and **I do not have ADMINISTRATOR permissions**. This may cause some issues, and you will have to clean up text channels yourself afterwards.",
  "vt_perms": "I require at least **manage roles** and **manage channels** permissions to enable this feature. (preferred Administration permission)",
  "waifu_affinity_already": "your affinity is already set to that waifu or you're trying to remove your affinity while not having one.",
  "waifu_affinity_changed": "changed their affinity from {0} to {1}.\n\n*This is morally questionable.*🤔",
  "waifu_affinity_cooldown": "You must wait {0} hours and {1} minutes in order to change your affinity again.",
  "waifu_affinity_reset": "Your affinity is reset. You no longer have a person you like.",
  "waifu_affinity_set": "wants to be {0}'s waifu. Aww <3",
  "waifu_claimed": "claimed {0} as their waifu for {1}!",
  "waifu_divorced_like": "You have divorced a waifu who likes you. You heartless monster.\n{0} received {1} as a compensation.",
  "waifu_divorced_notlike": "You have divorced a waifu who doesn't like you. You received {0} back.",
  "waifu_egomaniac": "you can't set affinity to yourself, you egomaniac.",
  "waifu_fulfilled": "🎉 Their love is fulfilled! 🎉\n{0}'s new value is {1}!",
  "waifu_gift_shop": "Waifu gift shop",
  "waifu_gift": "Gifted {0} to {1}",
  "waifu_isnt_cheap": "No waifu is that cheap. You must pay at least {0} to get a waifu, even if their actual value is lower.",
  "waifu_not_enough": "You must pay {0} or more to claim that waifu!",
  "waifu_not_yours": "That waifu is not yours.",
  "waifu_not_yourself": "You can't claim yourself.",
  "waifu_recent_divorce": "You divorced recently. You must wait {0} hours and {1} minutes to divorce again.",
  "waifu_reset_confirm": "This will reset your waifu stats",
  "waifu_reset_fail": "Failed resetting waifu stats. Make sure you have enough currency.",
  "waifu_reset_price": "Price: {0}",
  "waifu_reset": "Your waifu stats have been reset.",
  "waifu_transfer_fail": "You're either not the owner of that waifu, or you can't afford it. Alternatively your input is invalid.",
  "waifu_transfer_success": "Claim on {0} has been transfered from {1} to {2}",
  "waifu": "Waifu",
  "waifus_none": "No waifus have been claimed yet.",
  "waifus_top_waifus": "Top Waifus",
  "warn_cleared_by": "cleared by {0}",
  "warn_expire_reset": "Warnings will no longer expire.",
  "warn_expire_set_clear": "Warnings will be cleared after {0} days.",
  "warn_expire_set_delete": "Warnings will be deleted after {0} days.",
  "warn_no_perms": "I can't apply punishment. Missing permissions.",
  "warn_punish_list": "Warning punishment list",
  "warn_punish_rem": "Having {0} warnings will no longer trigger a punishment.",
  "warn_punish_set_timed": "I will apply {0} punishment for {2} to users with {1} warnings.",
  "warn_punish_set": "I will apply {0} punishment to users with {1} warnings.",
  "warned_on_by": "On {0} at {1} by {2}",
  "warned_on": "Warned on {0} server",
  "warning_clear_fail": "Warning not cleared. Either the warning at that index doesn't exist, or it has already been cleared.",
  "warning_cleared": "Warning {0} has been cleared for {1}.",
  "warnings_cleared": "All warnings have been cleared for {0}.",
  "warnings_list": "List of all warned users on the server",
  "warnings_none": "No warning on this page.",
  "warnlog_for": "Warnlog for {0}",
  "warnpl_none": "No punishments set.",
  "watching": "Watching",
  "wiki_page_not_found": "Page not found.",
  "wikia_error": "Failed finding that term on the specified wikia.",
  "wikia_input_error": "Please enter a target wikia, followed by search query.",
  "wind_speed": "Wind speed",
  "won": "Won",
  "word_filter_channel_off": "Word filtering disabled on this channel.",
  "word_filter_channel_on": "Word filtering enabled on this channel.",
  "word_filter_server_off": "Word filtering disabled on this server.",
  "word_filter_server_on": "Word filtering enabled on this server.",
  "word": "Word",
  "x_most_banned_champs": "The {0} most banned champions",
  "x_votes_cast": "{0} total votes cast.",
  "xmuted_text_and_voice": "User {0} from text and voice chat by {1}",
  "xmuted_text": "User {0} from text chat by {1}",
  "xmuted_voice": "User {0} from voice chat {1}",
  "xp": "Experience",
  "xpn_notif_channel": "In the channel where you sent the last message.",
  "xpn_notif_disabled": "Nowhere.",
  "xpn_notif_dm": "In a direct message channel.",
  "xpn_setting_global": "Global Level-Up notifications",
  "xpn_setting_server": "Server Level-Up notifications",
  "yodify_error": "Failed to yodify your sentence."
}
